%YAML 1.1
%TAG !u! tag:unity3d.com,2011:
--- !u!78 &1
TagManager:
  serializedVersion: 2
  tags:
  - LocalPlayer
  layers:
  - Default
  - TransparentFX
  - Ignore Raycast
  - 
  - Water
  - UI
  - 
  - 
  - Reflection_Probes
  - Lighting
  - Props
  - ReflectedInWater
  - Ground
  - AccessibleVolume
  - Soldier
  - SoldierThirdPerson
  - LocalSoldier
  - WoodenPlanks
  - Collectable
  - 
  - 
  - 
  - 
  - 
  - 
  - 
  - 
  - 
  - 
  - 
  - 
  - 
  m_SortingLayers:
  - name: Default
    uniqueID: 0
    locked: 0
